<?xml version="1.0" encoding="iso-8859-1"?>
<!-- Generator: Adobe Illustrator 18.0.0, SVG Export Plug-In . SVG Version: 6.00 Build 0)  -->
<!DOCTYPE svg PUBLIC "-//W3C//DTD SVG 1.1//EN" "http://www.w3.org/Graphics/SVG/1.1/DTD/svg11.dtd"><?xml-stylesheet type="text/css" href="../../css/style-svg.css"?>
<svg version="1.1" id="Capa_1" xmlns="http://www.w3.org/2000/svg" xmlns:xlink="http://www.w3.org/1999/xlink" x="0px" y="0px"
	 viewBox="0 0 455.764 455.764" style="enable-background:new 0 0 455.764 455.764;" xml:space="preserve">
<g>
	<path d="M230.287,130.17c-4.143,0-7.5,3.358-7.5,7.5s3.357,7.5,7.5,7.5c30.734,0,55.738,25.004,55.738,55.738v5.624
		c0,4.142,3.357,7.5,7.5,7.5s7.5-3.358,7.5-7.5v-5.624C301.026,161.903,269.292,130.17,230.287,130.17z"/>
	<path d="M293.526,229.95c-4.143,0-7.5,3.358-7.5,7.5v66.055c0,4.142,3.357,7.5,7.5,7.5s7.5-3.358,7.5-7.5V237.45
		C301.026,233.308,297.668,229.95,293.526,229.95z"/>
	<path d="M362.395,339.574h-36.071V200.908c0-52.955-43.082-96.037-96.036-96.037c-52.96,0-96.046,43.082-96.046,96.037v138.666
		H98.175c-4.143,0-7.5,3.358-7.5,7.5v101.19c0,4.142,3.357,7.5,7.5,7.5h264.22c4.143,0,7.5-3.358,7.5-7.5v-101.19
		C369.895,342.932,366.537,339.574,362.395,339.574z M149.241,200.908c0-44.684,36.357-81.037,81.046-81.037
		c44.684,0,81.036,36.353,81.036,81.037v138.666H149.241V200.908z M354.895,354.574v18.73h-249.22v-18.73H354.895z M105.675,440.764
		v-52.46h249.22v52.46H105.675z"/>
	<path d="M227.882,74.336c4.143,0,7.5-3.358,7.5-7.5V7.5c0-4.142-3.357-7.5-7.5-7.5s-7.5,3.358-7.5,7.5v59.336
		C220.382,70.979,223.74,74.336,227.882,74.336z"/>
	<path d="M130.73,110.179c1.465,1.464,3.385,2.197,5.304,2.197s3.839-0.732,5.304-2.197c2.929-2.929,2.929-7.678,0-10.606
		L99.384,57.62c-2.93-2.929-7.678-2.929-10.607,0c-2.929,2.929-2.929,7.678,0,10.606L130.73,110.179z"/>
	<path d="M105.483,196.725c0-4.142-3.357-7.5-7.5-7.5H38.657c-4.143,0-7.5,3.358-7.5,7.5s3.357,7.5,7.5,7.5h59.325
		C102.125,204.225,105.483,200.867,105.483,196.725z"/>
	<path d="M319.731,112.376c1.919,0,3.839-0.732,5.304-2.197l41.952-41.952c2.929-2.929,2.929-7.678,0-10.606
		c-2.93-2.929-7.678-2.929-10.607,0l-41.952,41.952c-2.929,2.929-2.929,7.678,0,10.606
		C315.892,111.644,317.812,112.376,319.731,112.376z"/>
	<path d="M417.107,189.225H357.77c-4.143,0-7.5,3.358-7.5,7.5s3.357,7.5,7.5,7.5h59.337c4.143,0,7.5-3.358,7.5-7.5
		S421.249,189.225,417.107,189.225z"/>
</g>
<g>
</g>
<g>
</g>
<g>
</g>
<g>
</g>
<g>
</g>
<g>
</g>
<g>
</g>
<g>
</g>
<g>
</g>
<g>
</g>
<g>
</g>
<g>
</g>
<g>
</g>
<g>
</g>
<g>
</g>
</svg>
