<?xml version="1.0" encoding="iso-8859-1"?><?xml-stylesheet type="text/css" href="../../css/style-svg.css"?>
<!-- Generator: Adobe Illustrator 19.0.0, SVG Export Plug-In . SVG Version: 6.00 Build 0)  -->
<svg version="1.1" id="Capa_1" xmlns="http://www.w3.org/2000/svg" xmlns:xlink="http://www.w3.org/1999/xlink" x="0px" y="0px"
	 viewBox="0 0 512.001 512.001" style="enable-background:new 0 0 512.001 512.001;" xml:space="preserve">
<g>
	<g>
		<path d="M472.396,0H326.272c-4.2,0-7.604,3.404-7.604,7.604s3.404,7.604,7.604,7.604h138.52v28.157
			c0,9.783-7.959,17.742-17.741,17.742h-30.445h-34.542H351.62c-9.783,0-17.742-7.959-17.742-17.742c0-4.2-3.404-7.604-7.604-7.604
			s-7.604,3.404-7.604,7.604c0,18.168,14.781,32.949,32.949,32.949h22.841v115.823c-25.506-7.027-52.659-5.715-77.533,3.917
			l-14.767,5.718l-5.902-15.242c-0.729-1.88-2.174-3.395-4.019-4.21c-1.845-0.814-3.938-0.865-5.818-0.136l-53.766,20.818
			c-3.916,1.517-5.861,5.921-4.345,9.836c1.517,3.916,5.923,5.862,9.836,4.345l46.675-18.072l94.753,244.723l-39.584,15.327
			l-76.193-196.789c-1.517-3.916-5.922-5.862-9.836-4.345c-3.916,1.517-5.861,5.921-4.345,9.836l78.938,203.879
			c0.729,1.88,2.174,3.395,4.019,4.21c0.977,0.432,2.024,0.649,3.072,0.649c0.93,0,1.861-0.17,2.746-0.513l53.766-20.818
			c3.916-1.517,5.861-5.921,4.345-9.836l-4.941-12.761l14.767-5.717c63.66-24.649,95.399-96.492,70.75-160.153
			c-7.059-18.229-18.386-34.604-32.869-47.56V76.314h22.841c18.168,0,32.948-14.781,32.948-32.95V7.604
			C480,3.404,476.597,0,472.396,0z M442.898,272.294c21.621,55.839-6.219,118.858-62.059,140.48l-14.766,5.717l-78.42-202.537
			l14.766-5.718c24.769-9.591,52.113-9.78,76.997-0.532c2.336,0.867,4.945,0.537,6.99-0.884c2.045-1.421,3.264-3.753,3.264-6.243
			V76.314h19.334v146.394c0,2.242,0.988,4.37,2.703,5.813C425.54,240.183,436.326,255.319,442.898,272.294z"/>
	</g>
</g>
<g>
	<g>
		<path d="M203.514,362.949c-1.509-3.919-5.908-5.872-9.828-4.364l-29.379,11.314c-3.919,1.509-5.872,5.91-4.364,9.828
			c1.163,3.02,4.043,4.874,7.098,4.874c0.908,0,1.833-0.164,2.73-0.51l29.379-11.314
			C203.069,371.269,205.023,366.868,203.514,362.949z"/>
	</g>
</g>
<g>
	<g>
		<path d="M139.13,387.742c-1.509-3.919-5.909-5.871-9.828-4.364l-33.233,12.798c-3.919,1.509-5.872,5.91-4.364,9.828
			c1.163,3.02,4.043,4.874,7.098,4.874c0.908,0,1.833-0.164,2.73-0.51l33.233-12.798
			C138.686,396.062,140.639,391.662,139.13,387.742z"/>
	</g>
</g>
<g>
	<g>
		<path d="M158.076,310.501c-0.415-4.178-4.128-7.226-8.319-6.814l-27.008,2.684c-4.178,0.415-7.23,4.14-6.814,8.319
			c0.389,3.923,3.697,6.853,7.557,6.853c0.251,0,0.505-0.013,0.761-0.039l27.008-2.684
			C155.44,318.405,158.492,314.68,158.076,310.501z"/>
	</g>
</g>
<g>
	<g>
		<path d="M86.416,317.625c-0.415-4.179-4.135-7.225-8.319-6.814l-39.242,3.901c-4.178,0.415-7.23,4.14-6.814,8.319
			c0.39,3.923,3.697,6.853,7.557,6.853c0.251,0,0.506-0.013,0.761-0.039l39.242-3.901C83.78,325.529,86.832,321.804,86.416,317.625z
			"/>
	</g>
</g>
<g>
	<g>
		<path d="M200.126,435.633c-2.543-3.342-7.315-3.991-10.656-1.448l-27.034,20.567c-3.343,2.543-3.991,7.314-1.448,10.656
			c1.496,1.966,3.763,3,6.058,3c1.605,0,3.223-0.506,4.598-1.552l27.034-20.567C202.021,443.746,202.669,438.975,200.126,435.633z"
			/>
	</g>
</g>
<g>
	<g>
		<path d="M148.067,475.238c-2.543-3.343-7.314-3.99-10.656-1.448l-32.275,24.555c-3.343,2.543-3.991,7.313-1.448,10.656
			c1.496,1.966,3.763,3,6.058,3c1.605,0,3.223-0.506,4.598-1.552l32.275-24.555C149.962,483.351,150.61,478.581,148.067,475.238z"/>
	</g>
</g>
<g>
</g>
<g>
</g>
<g>
</g>
<g>
</g>
<g>
</g>
<g>
</g>
<g>
</g>
<g>
</g>
<g>
</g>
<g>
</g>
<g>
</g>
<g>
</g>
<g>
</g>
<g>
</g>
<g>
</g>
</svg>
