<?xml version="1.0" encoding="utf-8"?>
<!-- Generator: Adobe Illustrator 21.1.0, SVG Export Plug-In . SVG Version: 6.00 Build 0)  -->
<svg version="1.1" id="Capa_1" xmlns="http://www.w3.org/2000/svg" xmlns:xlink="http://www.w3.org/1999/xlink" x="0px" y="0px"
	 viewBox="0 0 512 512" style="enable-background:new 0 0 512 512;" xml:space="preserve">
<style type="text/css">
	.st0{fill:#6EB2E3;}
</style>
<g>
	<g>
		<path class="st0" d="M504,0h-32c-4.4,0-8,3.6-8,8v176h-32v-80h8c4.4,0,8-3.6,8-8V64c0-4.4-3.6-8-8-8H248c-4.4,0-8,3.6-8,8v32
			c0,4.4,3.6,8,8,8h8v80h-64v-48h8c4.4,0,8-3.6,8-8V96c0-4.4-3.6-8-8-8h-8V8c0-4.4-3.6-8-8-8H88c-4.4,0-8,3.6-8,8v80h-8
			c-4.4,0-8,3.6-8,8v32c0,4.4,3.6,8,8,8h8v48H48V8c0-4.4-3.6-8-8-8H8C3.6,0,0,3.6,0,8v496c0,4.4,3.6,8,8,8h496c4.4,0,8-3.6,8-8V8
			C512,3.6,508.4,0,504,0z M32,496H16V16h16V496z M256,72h176v16H256V72z M272,152v-48h144v80H272v-16h96v-16H272z M96,72h32V56H96
			V16h80v72H96V72z M80,104h112v16H80V104z M96,152v-16h80v48H96v-16h32v-16H96z M176,496H96v-16h32v-16H96v-24h80V496z M80,424v-16
			h112v16H80z M416,496H272v-16h96v-16h-96v-48h144V496z M256,400v-16h176v16H256z M464,496h-32v-80h8c4.4,0,8-3.6,8-8v-32
			c0-4.4-3.6-8-8-8H248c-4.4,0-8,3.6-8,8v32c0,4.4,3.6,8,8,8h8v80h-64v-56h8c4.4,0,8-3.6,8-8v-32c0-4.4-3.6-8-8-8H72
			c-4.4,0-8,3.6-8,8v32c0,4.4,3.6,8,8,8h8v56H48V352h416V496z M88,304v-64h80v96H88v-16h32v-16H88z M216,304v-64h80v96h-80v-16h32
			v-16H216z M344,304v-64h80v96h-80v-16h32v-16H344z M464,336h-24V232c0-4.4-3.6-8-8-8h-96c-4.4,0-8,3.6-8,8v104h-16V232
			c0-4.4-3.6-8-8-8h-96c-4.4,0-8,3.6-8,8v104h-16V232c0-4.4-3.6-8-8-8H80c-4.4,0-8,3.6-8,8v104H48V200h40h376V336z M496,496h-16V16
			h16V496z"/>
	</g>
</g>
<g>
	<g>
		<rect x="384" y="464" class="st0" width="16" height="16"/>
	</g>
</g>
<g>
	<g>
		<rect x="144" y="464" class="st0" width="16" height="16"/>
	</g>
</g>
<g>
	<g>
		<rect x="384" y="152" class="st0" width="16" height="16"/>
	</g>
</g>
<g>
	<g>
		<rect x="144" y="152" class="st0" width="16" height="16"/>
	</g>
</g>
<g>
	<g>
		<rect x="136" y="304" class="st0" width="16" height="16"/>
	</g>
</g>
<g>
	<g>
		<rect x="144" y="56" class="st0" width="16" height="16"/>
	</g>
</g>
<g>
	<g>
		<rect x="264" y="304" class="st0" width="16" height="16"/>
	</g>
</g>
<g>
	<g>
		<rect x="392" y="304" class="st0" width="16" height="16"/>
	</g>
</g>
</svg>
